{
  "iisSettings": {
    "windowsAuthentication": true,
    "anonymousAuthentication": true,
    "iis": {
      "applicationUrl": "http://localhost/SUAREZ_T3.WEB",
      "sslPort": 0
    },
    "iisExpress": {
      "applicationUrl": "http://localhost:63434",
      "sslPort": 44316
    }
  },
  "profiles": {
    "IIS Express": {
      "commandName": "IISExpress",
      "launchBrowser": true,
      "environmentVariables": {
        "ASPNETCORE_ENVIRONMENT": "Development",
        "ASPNETCORE_HOSTINGSTARTUPASSEMBLIES": "Microsoft.AspNetCore.Mvc.Razor.RuntimeCompilation"
      }
    },
    "IIS": {
      "commandName": "IIS",
      "launchBrowser": true,
      "launchUrl": "http://localhost/SUAREZ_T3.WEB",
      "environmentVariables": {
        "ASPNETCORE_ENVIRONMENT": "Development"
      }
    },
    "SUAREZ_T3.WEB": {
      "commandName": "Project",
      "launchBrowser": true,
      "environmentVariables": {
        "ASPNETCORE_ENVIRONMENT": "Development",
        "ASPNETCORE_HOSTINGSTARTUPASSEMBLIES": "Microsoft.AspNetCore.Mvc.Razor.RuntimeCompilation"
      },
      "applicationUrl": "https://localhost:5001;http://localhost:5000"
    }
  }
}